Eugene’s Project Documentation
…
library(here)

here() starts at /cloud/project

library(readxl)

library(readxl)
read_excel(here::here("data/raw/ProjectData.xlsx"))

# A tibble: 39 × 7
   ISO3  Country Residence_Type Service_Type   Coverage Population Service_Level
   <chr> <chr>   <chr>          <chr>             <dbl>      <dbl> <chr>        
 1 GHA   Ghana   total          Hygiene           45.5   15658992. Basic service
 2 GHA   Ghana   rural          Hygiene           31.3    4327143. Basic service
 3 GHA   Ghana   urban          Hygiene           55.0   11331848. Basic service
 4 GHA   Ghana   total          Sanitation        12.8    4412014. Basic service
 5 GHA   Ghana   rural          Sanitation         2.99    413732. Basic service
 6 GHA   Ghana   urban          Sanitation        19.4    3998282. Basic service
 7 GHA   Ghana   total          Drinking water    47.0   16174213. Basic service
 8 GHA   Ghana   rural          Drinking water    59.1    8170136. Basic service
 9 GHA   Ghana   urban          Drinking water    38.8    8004077. Basic service
10 GHA   Ghana   total          Hygiene           44.9   15442597. Limited serv…
# ℹ 29 more rows
…
processed_data <- processed_data %>%
  select(service_type, coverage, population, residence_type, service_level, Region)

print(processed_data)

# A tibble: 39 × 6
   service_type   coverage population residence_type service_level   Region  
   <chr>             <dbl>      <dbl> <chr>          <chr>           <chr>   
 1 Hygiene           45.5    15658992 total          Basic service   Region 1
 2 Hygiene           31.3     4327143 rural          Basic service   Region 1
 3 Hygiene           55.0    11331848 urban          Basic service   Region 1
 4 Sanitation        12.8     4412014 total          Basic service   Region 2
 5 Sanitation         2.99     413732 rural          Basic service   Region 2
 6 Sanitation        19.4     3998282 urban          Basic service   Region 2
 7 Drinking water    47.0    16174213 total          Basic service   Region 3
 8 Drinking water    59.1     8170136 rural          Basic service   Region 3
 9 Drinking water    38.8     8004077 urban          Basic service   Region 3
10 Hygiene           44.9    15442597 total          Limited service Region 4
# ℹ 29 more rows
…
